﻿{
  "dependencies": {
    "Microsoft.NETCore.UniversalWindowsPlatform": "5.0.0",
    "xunit": "2.1.0-beta4-build3109",
    "xunit.runner.visualstudio": "2.1.0-beta4-build1109",
    "xunit.runners": "2.0.0"
  },
  "frameworks": {
    "uap10.0": {}
  },
  "runtimes": {
    "win10-arm": {},
    "win10-arm-aot": {},
    "win10-x86": {},
    "win10-x86-aot": {},
    "win10-x64": {},
    "win10-x64-aot": {}
  }
}